src/classifier/tests_cocotb/log.txt
rm -f results.xml
"make" -f Makefile results.xml
make[1]: Entering directory '/home/jjm469/c2s2/updated_classifier/src/classifier/tests_new'
rm -f results.xml
MODULE=test_classifier TESTCASE= TOPLEVEL=classifier_Classifier TOPLEVEL_LANG=verilog \
 sim_build/simv +define+COCOTB_SIM=1 -cm line+tgl +vcs+dumpvars+waves.vcd +vcs+vcdpluson +vcs+vcdplusmemon -full64  
Info: [VCS_SAVE_RESTORE_INFO] ASLR (Address Space Layout Randomization) is detected on the machine. To enable $save functionality, ASLR will be switched off and simv re-executed.
Please use '-no_save' simv switch to avoid re-execution or '-suppress=ASLR_DETECTED_INFO' to suppress this message.

Warning-[RT_UO] Unsupported option
  Unsupported option '-full64' is ignored

Chronologic VCS simulator copyright 1991-2023
Contains Synopsys proprietary information.
Compiler version V-2023.12-SP2-1_Full64; Runtime version V-2023.12-SP2-1_Full64;  May  5 01:36 2025
     -.--ns INFO     gpi                                ..mbed/gpi_embed.cpp:79   in set_program_name_in_venv        Did not detect Python virtual environment. Using system-wide Python interpreter
     -.--ns INFO     gpi                                ../gpi/GpiCommon.cpp:101  in gpi_print_registered_impl       VPI registered

 VCS Coverage Metrics Release V-2023.12-SP2-1_Full64 Copyright (c) 1991-2023 by Synopsys Inc.
     0.00ns INFO     cocotb                             Running on Chronologic Simulation VCS Release version V-2023.12-SP2-1_Full64
     0.00ns INFO     cocotb                             Running tests with cocotb v1.9.2 from /classes/c2s2/easybuild-rhel/software/C2S2PythonPackages/2024.10-foss-2023b/lib/python3.11/site-packages/cocotb
     0.00ns INFO     cocotb                             Seeding Python random module with 1746423394
     0.00ns INFO     cocotb.regression                  Found test test_classifier.test_classifier_001
     0.00ns INFO     cocotb.regression                  Found test test_classifier.test_classifier_002
     0.00ns INFO     cocotb.regression                  Found test test_classifier.test_classifier_003
     0.00ns INFO     cocotb.regression                  Found test test_classifier.test_classifier_004
     0.00ns INFO     cocotb.regression                  Found test test_classifier.test_classifier_005
     0.00ns INFO     cocotb.regression                  Found test test_classifier.test_classifier_006
     0.00ns INFO     cocotb.regression                  Found test test_classifier.test_classifier_007
     0.00ns INFO     cocotb.regression                  Found test test_classifier.test_classifier_008
     0.00ns INFO     cocotb.regression                  Found test test_classifier.test_classifier_009
     0.00ns INFO     cocotb.regression                  Found test test_classifier.test_classifier_010
     0.00ns INFO     cocotb.regression                  Found test test_classifier.test_classifier_011
     0.00ns INFO     cocotb.regression                  Found test test_classifier.test_classifier_012
     0.00ns INFO     cocotb.regression                  Found test test_classifier.test_classifier_013
     0.00ns INFO     cocotb.regression                  Found test test_classifier.test_classifier_014
     0.00ns INFO     cocotb.regression                  Found test test_classifier.test_classifier_015
     0.00ns INFO     cocotb.regression                  Found test test_classifier.test_classifier_016
     0.00ns INFO     cocotb.regression                  Found test test_classifier.test_classifier_017
     0.00ns INFO     cocotb.regression                  Found test test_classifier.test_classifier_018
     0.00ns INFO     cocotb.regression                  Found test test_classifier.test_classifier_019
     0.00ns INFO     cocotb.regression                  Found test test_classifier.test_classifier_020
     0.00ns INFO     cocotb.regression                  Found test test_classifier.test_classifier_021
     0.00ns INFO     cocotb.regression                  Found test test_classifier.test_classifier_022
     0.00ns INFO     cocotb.regression                  Found test test_classifier.test_classifier_023
     0.00ns INFO     cocotb.regression                  Found test test_classifier.test_classifier_024
     0.00ns INFO     cocotb.regression                  Found test test_classifier.test_classifier_025
     0.00ns INFO     cocotb.regression                  Found test test_classifier.test_classifier_026
     0.00ns INFO     cocotb.regression                  Found test test_classifier.test_classifier_027
     0.00ns INFO     cocotb.regression                  Found test test_classifier.test_classifier_028
     0.00ns INFO     cocotb.regression                  Found test test_classifier.test_classifier_029
     0.00ns INFO     cocotb.regression                  Found test test_classifier.test_classifier_030
     0.00ns INFO     cocotb.regression                  Found test test_classifier.test_classifier_031
     0.00ns INFO     cocotb.regression                  Found test test_classifier.test_classifier_032
     0.00ns INFO     cocotb.regression                  Found test test_classifier.test_classifier_033
     0.00ns INFO     cocotb.regression                  Found test test_classifier.test_classifier_034
     0.00ns INFO     cocotb.regression                  Found test test_classifier.test_classifier_035
     0.00ns INFO     cocotb.regression                  Found test test_classifier.test_classifier_036
     0.00ns INFO     cocotb.regression                  running test_classifier_001 (1/36)
                                                          Automatically generated test
                                                          
                                                          cutoff_freq: 0
                                                          cutoff_mag: 3
                                                          sampling_freq: 44800
     0.00ns INFO     cocotb.classifier_Classifier       DUT parameters (BIT_WIDTH): 16
     0.00ns INFO     cocotb.classifier_Classifier       DUT parameters (FREQ_BIT_WIDTH): 16
     0.00ns INFO     cocotb.classifier_Classifier       DUT parameters (N_SAMPLES): 16
VCD+ Writer V-2023.12-SP2-1_Full64 Copyright (c) 1991-2023 by Synopsys Inc.
     5.00ns INFO     cocotb.classifier_Classifier       ==================================================
     5.00ns INFO     cocotb.classifier_Classifier       ----
     5.00ns INFO     cocotb.regression                  test_classifier_001 passed
     5.00ns INFO     cocotb.regression                  running test_classifier_002 (2/36)
                                                          Automatically generated test
                                                          
                                                          cutoff_freq: 0
                                                          cutoff_mag: 3
                                                          sampling_freq: 44100
     5.00ns INFO     cocotb.classifier_Classifier       DUT parameters (BIT_WIDTH): 16
     5.00ns INFO     cocotb.classifier_Classifier       DUT parameters (FREQ_BIT_WIDTH): 16
     5.00ns INFO     cocotb.classifier_Classifier       DUT parameters (N_SAMPLES): 16
    11.00ns INFO     cocotb.classifier_Classifier       ==================================================
    11.00ns INFO     cocotb.classifier_Classifier       ----
    11.00ns INFO     cocotb.regression                  test_classifier_002 passed
    11.00ns INFO     cocotb.regression                  running test_classifier_003 (3/36)
                                                          Automatically generated test
                                                          
                                                          cutoff_freq: 0
                                                          cutoff_mag: 3
                                                          sampling_freq: 25000
    11.00ns INFO     cocotb.classifier_Classifier       DUT parameters (BIT_WIDTH): 16
    11.00ns INFO     cocotb.classifier_Classifier       DUT parameters (FREQ_BIT_WIDTH): 16
    11.00ns INFO     cocotb.classifier_Classifier       DUT parameters (N_SAMPLES): 16
    17.00ns INFO     cocotb.classifier_Classifier       ==================================================
    17.00ns INFO     cocotb.classifier_Classifier       ----
    17.00ns INFO     cocotb.regression                  test_classifier_003 passed
    17.00ns INFO     cocotb.regression                  running test_classifier_004 (4/36)
                                                          Automatically generated test
                                                          
                                                          cutoff_freq: 0
                                                          cutoff_mag: 4
                                                          sampling_freq: 44800
    17.00ns INFO     cocotb.classifier_Classifier       DUT parameters (BIT_WIDTH): 16
    17.00ns INFO     cocotb.classifier_Classifier       DUT parameters (FREQ_BIT_WIDTH): 16
    17.00ns INFO     cocotb.classifier_Classifier       DUT parameters (N_SAMPLES): 16
    23.00ns INFO     cocotb.classifier_Classifier       ==================================================
    23.00ns INFO     cocotb.classifier_Classifier       ----
    23.00ns INFO     cocotb.regression                  test_classifier_004 passed
    23.00ns INFO     cocotb.regression                  running test_classifier_005 (5/36)
                                                          Automatically generated test
                                                          
                                                          cutoff_freq: 0
                                                          cutoff_mag: 4
                                                          sampling_freq: 44100
    23.00ns INFO     cocotb.classifier_Classifier       DUT parameters (BIT_WIDTH): 16
    23.00ns INFO     cocotb.classifier_Classifier       DUT parameters (FREQ_BIT_WIDTH): 16
    23.00ns INFO     cocotb.classifier_Classifier       DUT parameters (N_SAMPLES): 16
    29.00ns INFO     cocotb.classifier_Classifier       ==================================================
    29.00ns INFO     cocotb.classifier_Classifier       ----
    29.00ns INFO     cocotb.regression                  test_classifier_005 passed
    29.00ns INFO     cocotb.regression                  running test_classifier_006 (6/36)
                                                          Automatically generated test
                                                          
                                                          cutoff_freq: 0
                                                          cutoff_mag: 4
                                                          sampling_freq: 25000
    29.00ns INFO     cocotb.classifier_Classifier       DUT parameters (BIT_WIDTH): 16
    29.00ns INFO     cocotb.classifier_Classifier       DUT parameters (FREQ_BIT_WIDTH): 16
    29.00ns INFO     cocotb.classifier_Classifier       DUT parameters (N_SAMPLES): 16
    35.01ns INFO     cocotb.classifier_Classifier       ==================================================
    35.01ns INFO     cocotb.classifier_Classifier       ----
    35.01ns INFO     cocotb.regression                  test_classifier_006 passed
    35.01ns INFO     cocotb.regression                  running test_classifier_007 (7/36)
                                                          Automatically generated test
                                                          
                                                          cutoff_freq: 0
                                                          cutoff_mag: 7
                                                          sampling_freq: 44800
    35.01ns INFO     cocotb.classifier_Classifier       DUT parameters (BIT_WIDTH): 16
    35.01ns INFO     cocotb.classifier_Classifier       DUT parameters (FREQ_BIT_WIDTH): 16
    35.01ns INFO     cocotb.classifier_Classifier       DUT parameters (N_SAMPLES): 16
    41.01ns INFO     cocotb.classifier_Classifier       ==================================================
    41.01ns INFO     cocotb.classifier_Classifier       ----
    41.01ns INFO     cocotb.regression                  test_classifier_007 passed
    41.01ns INFO     cocotb.regression                  running test_classifier_008 (8/36)
                                                          Automatically generated test
                                                          
                                                          cutoff_freq: 0
                                                          cutoff_mag: 7
                                                          sampling_freq: 44100
    41.01ns INFO     cocotb.classifier_Classifier       DUT parameters (BIT_WIDTH): 16
    41.01ns INFO     cocotb.classifier_Classifier       DUT parameters (FREQ_BIT_WIDTH): 16
    41.01ns INFO     cocotb.classifier_Classifier       DUT parameters (N_SAMPLES): 16
    47.01ns INFO     cocotb.classifier_Classifier       ==================================================
    47.01ns INFO     cocotb.classifier_Classifier       ----
    47.01ns INFO     cocotb.regression                  test_classifier_008 passed
    47.01ns INFO     cocotb.regression                  running test_classifier_009 (9/36)
                                                          Automatically generated test
                                                          
                                                          cutoff_freq: 0
                                                          cutoff_mag: 7
                                                          sampling_freq: 25000
    47.01ns INFO     cocotb.classifier_Classifier       DUT parameters (BIT_WIDTH): 16
    47.01ns INFO     cocotb.classifier_Classifier       DUT parameters (FREQ_BIT_WIDTH): 16
    47.01ns INFO     cocotb.classifier_Classifier       DUT parameters (N_SAMPLES): 16
    53.01ns INFO     cocotb.classifier_Classifier       ==================================================
    53.01ns INFO     cocotb.classifier_Classifier       ----
    53.01ns INFO     cocotb.regression                  test_classifier_009 passed
    53.01ns INFO     cocotb.regression                  running test_classifier_010 (10/36)
                                                          Automatically generated test
                                                          
                                                          cutoff_freq: 0
                                                          cutoff_mag: 10
                                                          sampling_freq: 44800
    53.01ns INFO     cocotb.classifier_Classifier       DUT parameters (BIT_WIDTH): 16
    53.01ns INFO     cocotb.classifier_Classifier       DUT parameters (FREQ_BIT_WIDTH): 16
    53.01ns INFO     cocotb.classifier_Classifier       DUT parameters (N_SAMPLES): 16
    59.01ns INFO     cocotb.classifier_Classifier       ==================================================
    59.01ns INFO     cocotb.classifier_Classifier       ----
    59.01ns INFO     cocotb.classifier_Classifier       ==================================================
    59.01ns INFO     cocotb.classifier_Classifier       Frequency bins
    59.01ns INFO     cocotb.classifier_Classifier       Bin Index: 0, Frequency Valid: 1, Frequency Value: 0
    59.01ns INFO     cocotb.classifier_Classifier       Bin Index: 1, Frequency Valid: 1, Frequency Value: 1400
    59.01ns INFO     cocotb.classifier_Classifier       Bin Index: 2, Frequency Valid: 1, Frequency Value: 2800
    59.01ns INFO     cocotb.classifier_Classifier       Bin Index: 3, Frequency Valid: 1, Frequency Value: 4200
    59.01ns INFO     cocotb.classifier_Classifier       Bin Index: 4, Frequency Valid: 1, Frequency Value: 5600
    59.01ns INFO     cocotb.classifier_Classifier       Bin Index: 5, Frequency Valid: 1, Frequency Value: 7000
    59.01ns INFO     cocotb.classifier_Classifier       Bin Index: 6, Frequency Valid: 1, Frequency Value: 8400
    59.01ns INFO     cocotb.classifier_Classifier       Bin Index: 7, Frequency Valid: 1, Frequency Value: 9800
    59.01ns INFO     cocotb.classifier_Classifier       Bin Index: 8, Frequency Valid: 1, Frequency Value: 11200
    59.01ns INFO     cocotb.classifier_Classifier       Bin Index: 9, Frequency Valid: 1, Frequency Value: 12600
    59.01ns INFO     cocotb.classifier_Classifier       Bin Index: 10, Frequency Valid: 1, Frequency Value: 14000
    59.01ns INFO     cocotb.classifier_Classifier       Bin Index: 11, Frequency Valid: 1, Frequency Value: 15400
    59.01ns INFO     cocotb.classifier_Classifier       Bin Index: 12, Frequency Valid: 1, Frequency Value: 16800
    59.01ns INFO     cocotb.classifier_Classifier       Bin Index: 13, Frequency Valid: 1, Frequency Value: 18200
    59.01ns INFO     cocotb.classifier_Classifier       Bin Index: 14, Frequency Valid: 1, Frequency Value: 19600
    59.01ns INFO     cocotb.classifier_Classifier       Bin Index: 15, Frequency Valid: 1, Frequency Value: 21000
    59.01ns INFO     cocotb.classifier_Classifier       ==================================================
    59.01ns INFO     cocotb.classifier_Classifier       Cutoff Magnitude: 10
    59.01ns INFO     cocotb.classifier_Classifier       Cutoff freq: 0
    59.01ns INFO     cocotb.classifier_Classifier       Actual
    59.01ns INFO     cocotb.classifier_Classifier       ACTUAL: Bin Index: 0, Bin Freq Valid: 1, Bin Cutoff mag met: 0, Bin Valid: 0, Bin Value: 5
    59.01ns INFO     cocotb.classifier_Classifier       EXPECTED: Bin Index: 0, Bin Freq Valid: 1, Bin Cutoff mag met: 0, Bin Valid: 0, Bin Value: 5
    59.01ns INFO     cocotb.classifier_Classifier       ACTUAL: Bin Index: 1, Bin Freq Valid: 1, Bin Cutoff mag met: 0, Bin Valid: 0, Bin Value: 9
    59.01ns INFO     cocotb.classifier_Classifier       EXPECTED: Bin Index: 1, Bin Freq Valid: 1, Bin Cutoff mag met: 0, Bin Valid: 0, Bin Value: 9
    59.01ns INFO     cocotb.classifier_Classifier       ACTUAL: Bin Index: 2, Bin Freq Valid: 1, Bin Cutoff mag met: 0, Bin Valid: 0, Bin Value: 4
    59.01ns INFO     cocotb.classifier_Classifier       EXPECTED: Bin Index: 2, Bin Freq Valid: 1, Bin Cutoff mag met: 0, Bin Valid: 0, Bin Value: 4
    59.01ns INFO     cocotb.classifier_Classifier       ACTUAL: Bin Index: 3, Bin Freq Valid: 1, Bin Cutoff mag met: 0, Bin Valid: 0, Bin Value: 1
    59.01ns INFO     cocotb.classifier_Classifier       EXPECTED: Bin Index: 3, Bin Freq Valid: 1, Bin Cutoff mag met: 0, Bin Valid: 0, Bin Value: 1
    59.01ns INFO     cocotb.classifier_Classifier       ACTUAL: Bin Index: 4, Bin Freq Valid: 1, Bin Cutoff mag met: 0, Bin Valid: 0, Bin Value: 9
    59.01ns INFO     cocotb.classifier_Classifier       EXPECTED: Bin Index: 4, Bin Freq Valid: 1, Bin Cutoff mag met: 0, Bin Valid: 0, Bin Value: 9
    59.01ns INFO     cocotb.classifier_Classifier       ACTUAL: Bin Index: 5, Bin Freq Valid: 1, Bin Cutoff mag met: 0, Bin Valid: 0, Bin Value: 3
    59.01ns INFO     cocotb.classifier_Classifier       EXPECTED: Bin Index: 5, Bin Freq Valid: 1, Bin Cutoff mag met: 0, Bin Valid: 0, Bin Value: 3
    59.01ns INFO     cocotb.classifier_Classifier       ACTUAL: Bin Index: 6, Bin Freq Valid: 1, Bin Cutoff mag met: 0, Bin Valid: 0, Bin Value: 9
    59.01ns INFO     cocotb.classifier_Classifier       EXPECTED: Bin Index: 6, Bin Freq Valid: 1, Bin Cutoff mag met: 0, Bin Valid: 0, Bin Value: 9
    59.01ns INFO     cocotb.classifier_Classifier       ACTUAL: Bin Index: 7, Bin Freq Valid: 1, Bin Cutoff mag met: 0, Bin Valid: 0, Bin Value: 4
    59.01ns INFO     cocotb.classifier_Classifier       EXPECTED: Bin Index: 7, Bin Freq Valid: 1, Bin Cutoff mag met: 0, Bin Valid: 0, Bin Value: 4
    59.01ns INFO     cocotb.classifier_Classifier       ACTUAL: Bin Index: 8, Bin Freq Valid: 1, Bin Cutoff mag met: 0, Bin Valid: 0, Bin Value: 9
    59.01ns INFO     cocotb.classifier_Classifier       EXPECTED: Bin Index: 8, Bin Freq Valid: 1, Bin Cutoff mag met: 0, Bin Valid: 0, Bin Value: 9
    59.01ns INFO     cocotb.classifier_Classifier       ACTUAL: Bin Index: 9, Bin Freq Valid: 1, Bin Cutoff mag met: 1, Bin Valid: 1, Bin Value: 10
    59.01ns INFO     cocotb.classifier_Classifier       EXPECTED: Bin Index: 9, Bin Freq Valid: 1, Bin Cutoff mag met: 0, Bin Valid: 0, Bin Value: 10
    59.01ns INFO     cocotb.classifier_Classifier       ACTUAL: Bin Index: 10, Bin Freq Valid: 1, Bin Cutoff mag met: 0, Bin Valid: 0, Bin Value: 2
    59.01ns INFO     cocotb.classifier_Classifier       EXPECTED: Bin Index: 10, Bin Freq Valid: 1, Bin Cutoff mag met: 0, Bin Valid: 0, Bin Value: 2
    59.01ns INFO     cocotb.classifier_Classifier       ACTUAL: Bin Index: 11, Bin Freq Valid: 1, Bin Cutoff mag met: 0, Bin Valid: 0, Bin Value: 8
    59.01ns INFO     cocotb.classifier_Classifier       EXPECTED: Bin Index: 11, Bin Freq Valid: 1, Bin Cutoff mag met: 0, Bin Valid: 0, Bin Value: 8
    59.01ns INFO     cocotb.classifier_Classifier       ACTUAL: Bin Index: 12, Bin Freq Valid: 1, Bin Cutoff mag met: 0, Bin Valid: 0, Bin Value: 6
    59.01ns INFO     cocotb.classifier_Classifier       EXPECTED: Bin Index: 12, Bin Freq Valid: 1, Bin Cutoff mag met: 0, Bin Valid: 0, Bin Value: 6
    59.01ns INFO     cocotb.classifier_Classifier       ACTUAL: Bin Index: 13, Bin Freq Valid: 1, Bin Cutoff mag met: 0, Bin Valid: 0, Bin Value: 2
    59.01ns INFO     cocotb.classifier_Classifier       EXPECTED: Bin Index: 13, Bin Freq Valid: 1, Bin Cutoff mag met: 0, Bin Valid: 0, Bin Value: 2
    59.01ns INFO     cocotb.classifier_Classifier       ACTUAL: Bin Index: 14, Bin Freq Valid: 1, Bin Cutoff mag met: 0, Bin Valid: 0, Bin Value: 7
    59.01ns INFO     cocotb.classifier_Classifier       EXPECTED: Bin Index: 14, Bin Freq Valid: 1, Bin Cutoff mag met: 0, Bin Valid: 0, Bin Value: 7
    59.01ns INFO     cocotb.classifier_Classifier       ACTUAL: Bin Index: 15, Bin Freq Valid: 1, Bin Cutoff mag met: 0, Bin Valid: 0, Bin Value: 8
    59.01ns INFO     cocotb.classifier_Classifier       EXPECTED: Bin Index: 15, Bin Freq Valid: 1, Bin Cutoff mag met: 0, Bin Valid: 0, Bin Value: 8
    59.01ns INFO     cocotb.regression                  test_classifier_010 failed
                                                        Traceback (most recent call last):
                                                          File "/classes/c2s2/easybuild-rhel/software/C2S2PythonPackages/2024.10-foss-2023b/lib/python3.11/site-packages/cocotb/regression.py", line 728, in _my_test
                                                            await function(dut, *args, **kwargs)
                                                          File "/home/jjm469/c2s2/updated_classifier/src/classifier/tests_new/test_classifier.py", line 115, in test_classifier
                                                            dut._log.info(f"Actual  : {dut.comparison.compare_outs.value[::-1]}")
                                                                                       ~~~~~~~~~~~~~~~~~~~~~~~~~~~~~~~~~^^^^^^
                                                          File "/classes/c2s2/easybuild-rhel/software/C2S2PythonPackages/2024.10-foss-2023b/lib/python3.11/site-packages/cocotb/binary.py", line 748, in __getitem__
                                                            if first < 0 or second < 0:
                                                               ^^^^^^^^^
                                                        TypeError: '<' not supported between instances of 'NoneType' and 'int'
    59.01ns INFO     cocotb.regression                  running test_classifier_011 (11/36)
                                                          Automatically generated test
                                                          
                                                          cutoff_freq: 0
                                                          cutoff_mag: 10
                                                          sampling_freq: 44100
    59.01ns INFO     cocotb.classifier_Classifier       DUT parameters (BIT_WIDTH): 16
    59.01ns INFO     cocotb.classifier_Classifier       DUT parameters (FREQ_BIT_WIDTH): 16
    59.01ns INFO     cocotb.classifier_Classifier       DUT parameters (N_SAMPLES): 16
    65.01ns INFO     cocotb.classifier_Classifier       ==================================================
    65.01ns INFO     cocotb.classifier_Classifier       ----
    65.01ns INFO     cocotb.classifier_Classifier       ==================================================
    65.01ns INFO     cocotb.classifier_Classifier       Frequency bins
    65.01ns INFO     cocotb.classifier_Classifier       Bin Index: 0, Frequency Valid: 1, Frequency Value: 0
    65.01ns INFO     cocotb.classifier_Classifier       Bin Index: 1, Frequency Valid: 1, Frequency Value: 1378
    65.01ns INFO     cocotb.classifier_Classifier       Bin Index: 2, Frequency Valid: 1, Frequency Value: 2756
    65.01ns INFO     cocotb.classifier_Classifier       Bin Index: 3, Frequency Valid: 1, Frequency Value: 4134
    65.01ns INFO     cocotb.classifier_Classifier       Bin Index: 4, Frequency Valid: 1, Frequency Value: 5512
    65.01ns INFO     cocotb.classifier_Classifier       Bin Index: 5, Frequency Valid: 1, Frequency Value: 6890
    65.01ns INFO     cocotb.classifier_Classifier       Bin Index: 6, Frequency Valid: 1, Frequency Value: 8268
    65.01ns INFO     cocotb.classifier_Classifier       Bin Index: 7, Frequency Valid: 1, Frequency Value: 9646
    65.01ns INFO     cocotb.classifier_Classifier       Bin Index: 8, Frequency Valid: 1, Frequency Value: 11025
    65.01ns INFO     cocotb.classifier_Classifier       Bin Index: 9, Frequency Valid: 1, Frequency Value: 12403
    65.01ns INFO     cocotb.classifier_Classifier       Bin Index: 10, Frequency Valid: 1, Frequency Value: 13781
    65.01ns INFO     cocotb.classifier_Classifier       Bin Index: 11, Frequency Valid: 1, Frequency Value: 15159
    65.01ns INFO     cocotb.classifier_Classifier       Bin Index: 12, Frequency Valid: 1, Frequency Value: 16537
    65.01ns INFO     cocotb.classifier_Classifier       Bin Index: 13, Frequency Valid: 1, Frequency Value: 17915
    65.01ns INFO     cocotb.classifier_Classifier       Bin Index: 14, Frequency Valid: 1, Frequency Value: 19293
    65.01ns INFO     cocotb.classifier_Classifier       Bin Index: 15, Frequency Valid: 1, Frequency Value: 20671
    65.01ns INFO     cocotb.classifier_Classifier       ==================================================
    65.01ns INFO     cocotb.classifier_Classifier       Cutoff Magnitude: 10
    65.01ns INFO     cocotb.classifier_Classifier       Cutoff freq: 0
    65.01ns INFO     cocotb.classifier_Classifier       Actual
    65.01ns INFO     cocotb.classifier_Classifier       ACTUAL: Bin Index: 0, Bin Freq Valid: 1, Bin Cutoff mag met: 0, Bin Valid: 0, Bin Value: 6
    65.01ns INFO     cocotb.classifier_Classifier       EXPECTED: Bin Index: 0, Bin Freq Valid: 1, Bin Cutoff mag met: 0, Bin Valid: 0, Bin Value: 6
    65.01ns INFO     cocotb.classifier_Classifier       ACTUAL: Bin Index: 1, Bin Freq Valid: 1, Bin Cutoff mag met: 0, Bin Valid: 0, Bin Value: 9
    65.01ns INFO     cocotb.classifier_Classifier       EXPECTED: Bin Index: 1, Bin Freq Valid: 1, Bin Cutoff mag met: 0, Bin Valid: 0, Bin Value: 9
    65.01ns INFO     cocotb.classifier_Classifier       ACTUAL: Bin Index: 2, Bin Freq Valid: 1, Bin Cutoff mag met: 1, Bin Valid: 1, Bin Value: 10
    65.01ns INFO     cocotb.classifier_Classifier       EXPECTED: Bin Index: 2, Bin Freq Valid: 1, Bin Cutoff mag met: 0, Bin Valid: 0, Bin Value: 10
    65.01ns INFO     cocotb.classifier_Classifier       ACTUAL: Bin Index: 3, Bin Freq Valid: 1, Bin Cutoff mag met: 0, Bin Valid: 0, Bin Value: 7
    65.01ns INFO     cocotb.classifier_Classifier       EXPECTED: Bin Index: 3, Bin Freq Valid: 1, Bin Cutoff mag met: 0, Bin Valid: 0, Bin Value: 7
    65.01ns INFO     cocotb.classifier_Classifier       ACTUAL: Bin Index: 4, Bin Freq Valid: 1, Bin Cutoff mag met: 1, Bin Valid: 1, Bin Value: 10
    65.01ns INFO     cocotb.classifier_Classifier       EXPECTED: Bin Index: 4, Bin Freq Valid: 1, Bin Cutoff mag met: 0, Bin Valid: 0, Bin Value: 10
    65.01ns INFO     cocotb.classifier_Classifier       ACTUAL: Bin Index: 5, Bin Freq Valid: 1, Bin Cutoff mag met: 0, Bin Valid: 0, Bin Value: 4
    65.01ns INFO     cocotb.classifier_Classifier       EXPECTED: Bin Index: 5, Bin Freq Valid: 1, Bin Cutoff mag met: 0, Bin Valid: 0, Bin Value: 4
    65.01ns INFO     cocotb.classifier_Classifier       ACTUAL: Bin Index: 6, Bin Freq Valid: 1, Bin Cutoff mag met: 0, Bin Valid: 0, Bin Value: 4
    65.01ns INFO     cocotb.classifier_Classifier       EXPECTED: Bin Index: 6, Bin Freq Valid: 1, Bin Cutoff mag met: 0, Bin Valid: 0, Bin Value: 4
    65.01ns INFO     cocotb.classifier_Classifier       ACTUAL: Bin Index: 7, Bin Freq Valid: 1, Bin Cutoff mag met: 0, Bin Valid: 0, Bin Value: 8
    65.01ns INFO     cocotb.classifier_Classifier       EXPECTED: Bin Index: 7, Bin Freq Valid: 1, Bin Cutoff mag met: 0, Bin Valid: 0, Bin Value: 8
    65.01ns INFO     cocotb.classifier_Classifier       ACTUAL: Bin Index: 8, Bin Freq Valid: 1, Bin Cutoff mag met: 1, Bin Valid: 1, Bin Value: 10
    65.01ns INFO     cocotb.classifier_Classifier       EXPECTED: Bin Index: 8, Bin Freq Valid: 1, Bin Cutoff mag met: 0, Bin Valid: 0, Bin Value: 10
    65.01ns INFO     cocotb.classifier_Classifier       ACTUAL: Bin Index: 9, Bin Freq Valid: 1, Bin Cutoff mag met: 0, Bin Valid: 0, Bin Value: 4
    65.01ns INFO     cocotb.classifier_Classifier       EXPECTED: Bin Index: 9, Bin Freq Valid: 1, Bin Cutoff mag met: 0, Bin Valid: 0, Bin Value: 4
    65.01ns INFO     cocotb.classifier_Classifier       ACTUAL: Bin Index: 10, Bin Freq Valid: 1, Bin Cutoff mag met: 0, Bin Valid: 0, Bin Value: 9
    65.01ns INFO     cocotb.classifier_Classifier       EXPECTED: Bin Index: 10, Bin Freq Valid: 1, Bin Cutoff mag met: 0, Bin Valid: 0, Bin Value: 9
    65.01ns INFO     cocotb.classifier_Classifier       ACTUAL: Bin Index: 11, Bin Freq Valid: 1, Bin Cutoff mag met: 0, Bin Valid: 0, Bin Value: 2
    65.01ns INFO     cocotb.classifier_Classifier       EXPECTED: Bin Index: 11, Bin Freq Valid: 1, Bin Cutoff mag met: 0, Bin Valid: 0, Bin Value: 2
    65.01ns INFO     cocotb.classifier_Classifier       ACTUAL: Bin Index: 12, Bin Freq Valid: 1, Bin Cutoff mag met: 0, Bin Valid: 0, Bin Value: 9
    65.01ns INFO     cocotb.classifier_Classifier       EXPECTED: Bin Index: 12, Bin Freq Valid: 1, Bin Cutoff mag met: 0, Bin Valid: 0, Bin Value: 9
    65.01ns INFO     cocotb.classifier_Classifier       ACTUAL: Bin Index: 13, Bin Freq Valid: 1, Bin Cutoff mag met: 0, Bin Valid: 0, Bin Value: 2
    65.01ns INFO     cocotb.classifier_Classifier       EXPECTED: Bin Index: 13, Bin Freq Valid: 1, Bin Cutoff mag met: 0, Bin Valid: 0, Bin Value: 2
    65.01ns INFO     cocotb.classifier_Classifier       ACTUAL: Bin Index: 14, Bin Freq Valid: 1, Bin Cutoff mag met: 0, Bin Valid: 0, Bin Value: 4
    65.01ns INFO     cocotb.classifier_Classifier       EXPECTED: Bin Index: 14, Bin Freq Valid: 1, Bin Cutoff mag met: 0, Bin Valid: 0, Bin Value: 4
    65.01ns INFO     cocotb.classifier_Classifier       ACTUAL: Bin Index: 15, Bin Freq Valid: 1, Bin Cutoff mag met: 0, Bin Valid: 0, Bin Value: 5
    65.01ns INFO     cocotb.classifier_Classifier       EXPECTED: Bin Index: 15, Bin Freq Valid: 1, Bin Cutoff mag met: 0, Bin Valid: 0, Bin Value: 5
    65.01ns INFO     cocotb.regression                  test_classifier_011 failed
                                                        Traceback (most recent call last):
                                                          File "/classes/c2s2/easybuild-rhel/software/C2S2PythonPackages/2024.10-foss-2023b/lib/python3.11/site-packages/cocotb/regression.py", line 728, in _my_test
                                                            await function(dut, *args, **kwargs)
                                                          File "/home/jjm469/c2s2/updated_classifier/src/classifier/tests_new/test_classifier.py", line 115, in test_classifier
                                                            dut._log.info(f"Actual  : {dut.comparison.compare_outs.value[::-1]}")
                                                                                       ~~~~~~~~~~~~~~~~~~~~~~~~~~~~~~~~~^^^^^^
                                                          File "/classes/c2s2/easybuild-rhel/software/C2S2PythonPackages/2024.10-foss-2023b/lib/python3.11/site-packages/cocotb/binary.py", line 748, in __getitem__
                                                            if first < 0 or second < 0:
                                                               ^^^^^^^^^
                                                        TypeError: '<' not supported between instances of 'NoneType' and 'int'
    65.01ns INFO     cocotb.regression                  running test_classifier_012 (12/36)
                                                          Automatically generated test
                                                          
                                                          cutoff_freq: 0
                                                          cutoff_mag: 10
                                                          sampling_freq: 25000
    65.01ns INFO     cocotb.classifier_Classifier       DUT parameters (BIT_WIDTH): 16
    65.01ns INFO     cocotb.classifier_Classifier       DUT parameters (FREQ_BIT_WIDTH): 16
    65.01ns INFO     cocotb.classifier_Classifier       DUT parameters (N_SAMPLES): 16
    71.01ns INFO     cocotb.classifier_Classifier       ==================================================
    71.01ns INFO     cocotb.classifier_Classifier       ----
    71.01ns INFO     cocotb.regression                  test_classifier_012 passed
    71.01ns INFO     cocotb.regression                  running test_classifier_013 (13/36)
                                                          Automatically generated test
                                                          
                                                          cutoff_freq: 2000
                                                          cutoff_mag: 3
                                                          sampling_freq: 44800
    71.01ns INFO     cocotb.classifier_Classifier       DUT parameters (BIT_WIDTH): 16
    71.01ns INFO     cocotb.classifier_Classifier       DUT parameters (FREQ_BIT_WIDTH): 16
    71.01ns INFO     cocotb.classifier_Classifier       DUT parameters (N_SAMPLES): 16
    77.01ns INFO     cocotb.classifier_Classifier       ==================================================
    77.01ns INFO     cocotb.classifier_Classifier       ----
    77.01ns INFO     cocotb.regression                  test_classifier_013 passed
    77.01ns INFO     cocotb.regression                  running test_classifier_014 (14/36)
                                                          Automatically generated test
                                                          
                                                          cutoff_freq: 2000
                                                          cutoff_mag: 3
                                                          sampling_freq: 44100
    77.01ns INFO     cocotb.classifier_Classifier       DUT parameters (BIT_WIDTH): 16
